(module DE119-XX-XX (layer F.Cu) (tedit 5FAE974E)
  (descr https://www.display-elektronik.de/filter/DE119-RS-20_635.pdf)
  (tags "4 digit 7 segment LCD ")
  (fp_text reference REF** (at 1.27 -2.54) (layer F.SilkS)
    (effects (font (size 1 1) (thickness 0.15)))
  )
  (fp_text value DE119-XX-XX (at 16.764 26.536) (layer F.Fab)
    (effects (font (size 1 1) (thickness 0.15)))
  )
  (fp_line (start 16.51 36.46) (end 16.51 43.46) (layer Cmts.User) (width 0.5))
  (fp_line (start 10.16 43.46) (end 10.16 36.46) (layer Cmts.User) (width 0.5))
  (fp_line (start 22.86 43.46) (end 10.16 43.46) (layer Cmts.User) (width 0.5))
  (fp_line (start 22.86 36.46) (end 22.86 43.46) (layer Cmts.User) (width 0.5))
  (fp_line (start 10.16 36.46) (end 22.86 36.46) (layer Cmts.User) (width 0.5))
  (fp_line (start 16.51 25.878) (end 16.51 32.878) (layer Cmts.User) (width 0.5))
  (fp_line (start 10.16 32.878) (end 10.16 25.878) (layer Cmts.User) (width 0.5))
  (fp_line (start 22.86 32.878) (end 10.16 32.878) (layer Cmts.User) (width 0.5))
  (fp_line (start 22.86 25.878) (end 22.86 32.878) (layer Cmts.User) (width 0.5))
  (fp_line (start 10.16 25.878) (end 22.86 25.878) (layer Cmts.User) (width 0.5))
  (fp_line (start 16.51 15.297) (end 16.51 22.297) (layer Cmts.User) (width 0.5))
  (fp_line (start 10.16 22.297) (end 10.16 15.297) (layer Cmts.User) (width 0.5))
  (fp_line (start 22.86 22.297) (end 10.16 22.297) (layer Cmts.User) (width 0.5))
  (fp_line (start 22.86 15.297) (end 22.86 22.297) (layer Cmts.User) (width 0.5))
  (fp_line (start 10.16 15.297) (end 22.86 15.297) (layer Cmts.User) (width 0.5))
  (fp_line (start 16.51 4.715) (end 16.51 11.715) (layer Cmts.User) (width 0.5))
  (fp_line (start 10.16 11.715) (end 10.16 4.715) (layer Cmts.User) (width 0.5))
  (fp_line (start 22.86 11.715) (end 10.16 11.715) (layer Cmts.User) (width 0.5))
  (fp_line (start 22.86 4.715) (end 22.86 11.715) (layer Cmts.User) (width 0.5))
  (fp_line (start 10.16 4.715) (end 22.86 4.715) (layer Cmts.User) (width 0.5))
  (fp_line (start 8.255 1.91) (end 8.255 46.36) (layer Cmts.User) (width 0.12))
  (fp_line (start 8.255 46.36) (end 24.765 46.36) (layer Cmts.User) (width 0.12))
  (fp_line (start 24.765 46.36) (end 24.765 1.91) (layer Cmts.User) (width 0.12))
  (fp_line (start 8.255 1.91) (end 24.765 1.91) (layer Cmts.User) (width 0.12))
  (fp_line (start 1.27 49.53) (end 1.27 1) (layer F.Fab) (width 0.1))
  (fp_line (start 31.75 49.53) (end 1.27 49.53) (layer F.Fab) (width 0.1))
  (fp_line (start 31.75 -1.27) (end 31.75 49.53) (layer F.Fab) (width 0.1))
  (fp_line (start 3.54 -1.27) (end 31.75 -1.27) (layer F.Fab) (width 0.1))
  (fp_line (start 1.27 1) (end 3.54 -1.27) (layer F.Fab) (width 0.1))
  (fp_line (start -1.3 -1.3) (end 0.8 -1.3) (layer F.SilkS) (width 0.12))
  (fp_line (start -1.3 -1.3) (end -1.3 2) (layer F.SilkS) (width 0.12))
  (fp_line (start -1 -2.27) (end 34.02 -2.27) (layer F.CrtYd) (width 0.05))
  (fp_line (start -1 50.53) (end -1 -2.27) (layer F.CrtYd) (width 0.05))
  (fp_line (start 34.02 50.53) (end -1 50.53) (layer F.CrtYd) (width 0.05))
  (fp_line (start 34.02 -2.27) (end 34.02 50.53) (layer F.CrtYd) (width 0.05))
  (fp_line (start 31.87 -1.39) (end 1.15 -1.39) (layer F.SilkS) (width 0.12))
  (fp_line (start 31.87 49.65) (end 31.87 -1.39) (layer F.SilkS) (width 0.12))
  (fp_line (start 1.15 49.65) (end 31.87 49.65) (layer F.SilkS) (width 0.12))
  (fp_line (start 1.15 -1.39) (end 1.15 49.65) (layer F.SilkS) (width 0.12))
  (fp_text user %R (at 16.764 24.504) (layer F.Fab)
    (effects (font (size 1 1) (thickness 0.15)))
  )
  (pad 40 thru_hole circle (at 33.02 0 270) (size 1.5 1.5) (drill 1) (layers *.Cu *.Mask))
  (pad 39 thru_hole circle (at 33.02 2.54 270) (size 1.5 1.5) (drill 1) (layers *.Cu *.Mask))
  (pad 38 thru_hole circle (at 33.02 5.08 270) (size 1.5 1.5) (drill 1) (layers *.Cu *.Mask))
  (pad 37 thru_hole circle (at 33.02 7.62 270) (size 1.5 1.5) (drill 1) (layers *.Cu *.Mask))
  (pad 36 thru_hole circle (at 33.02 10.16 270) (size 1.5 1.5) (drill 1) (layers *.Cu *.Mask))
  (pad 35 thru_hole circle (at 33.02 12.7 270) (size 1.5 1.5) (drill 1) (layers *.Cu *.Mask))
  (pad 34 thru_hole circle (at 33.02 15.24 270) (size 1.5 1.5) (drill 1) (layers *.Cu *.Mask))
  (pad 33 thru_hole circle (at 33.02 17.78 270) (size 1.5 1.5) (drill 1) (layers *.Cu *.Mask))
  (pad 32 thru_hole circle (at 33.02 20.32 270) (size 1.5 1.5) (drill 1) (layers *.Cu *.Mask))
  (pad 31 thru_hole circle (at 33.02 22.86 270) (size 1.5 1.5) (drill 1) (layers *.Cu *.Mask))
  (pad 30 thru_hole circle (at 33.02 25.4 270) (size 1.5 1.5) (drill 1) (layers *.Cu *.Mask))
  (pad 29 thru_hole circle (at 33.02 27.94 270) (size 1.5 1.5) (drill 1) (layers *.Cu *.Mask))
  (pad 28 thru_hole circle (at 33.02 30.48 270) (size 1.5 1.5) (drill 1) (layers *.Cu *.Mask))
  (pad 27 thru_hole circle (at 33.02 33.02 270) (size 1.5 1.5) (drill 1) (layers *.Cu *.Mask))
  (pad 26 thru_hole circle (at 33.02 35.56 270) (size 1.5 1.5) (drill 1) (layers *.Cu *.Mask))
  (pad 25 thru_hole circle (at 33.02 38.1 90) (size 1.5 1.5) (drill 1) (layers *.Cu *.Mask))
  (pad 24 thru_hole circle (at 33.02 40.64 90) (size 1.5 1.5) (drill 1) (layers *.Cu *.Mask))
  (pad 23 thru_hole circle (at 33.02 43.18 90) (size 1.5 1.5) (drill 1) (layers *.Cu *.Mask))
  (pad 22 thru_hole circle (at 33.02 45.72 90) (size 1.5 1.5) (drill 1) (layers *.Cu *.Mask))
  (pad 21 thru_hole circle (at 33.02 48.26 90) (size 1.5 1.5) (drill 1) (layers *.Cu *.Mask))
  (pad 20 thru_hole circle (at 0 48.26 270) (size 1.5 1.5) (drill 1) (layers *.Cu *.Mask))
  (pad 19 thru_hole circle (at 0 45.72 270) (size 1.5 1.5) (drill 1) (layers *.Cu *.Mask))
  (pad 18 thru_hole circle (at 0 43.18 270) (size 1.5 1.5) (drill 1) (layers *.Cu *.Mask))
  (pad 17 thru_hole circle (at 0 40.64 270) (size 1.5 1.5) (drill 1) (layers *.Cu *.Mask))
  (pad 16 thru_hole circle (at 0 38.1 270) (size 1.5 1.5) (drill 1) (layers *.Cu *.Mask))
  (pad 15 thru_hole circle (at 0 35.56 270) (size 1.5 1.5) (drill 1) (layers *.Cu *.Mask))
  (pad 14 thru_hole circle (at 0 33.02 270) (size 1.5 1.5) (drill 1) (layers *.Cu *.Mask))
  (pad 13 thru_hole circle (at 0 30.48 270) (size 1.5 1.5) (drill 1) (layers *.Cu *.Mask))
  (pad 12 thru_hole circle (at 0 27.94 270) (size 1.5 1.5) (drill 1) (layers *.Cu *.Mask))
  (pad 11 thru_hole circle (at 0 25.4 270) (size 1.5 1.5) (drill 1) (layers *.Cu *.Mask))
  (pad 10 thru_hole circle (at 0 22.86 270) (size 1.5 1.5) (drill 1) (layers *.Cu *.Mask))
  (pad 9 thru_hole circle (at 0 20.32 270) (size 1.5 1.5) (drill 1) (layers *.Cu *.Mask))
  (pad 8 thru_hole circle (at 0 17.78 270) (size 1.5 1.5) (drill 1) (layers *.Cu *.Mask))
  (pad 7 thru_hole circle (at 0 15.24 270) (size 1.5 1.5) (drill 1) (layers *.Cu *.Mask))
  (pad 6 thru_hole circle (at 0 12.7 270) (size 1.5 1.5) (drill 1) (layers *.Cu *.Mask))
  (pad 5 thru_hole circle (at 0 10.16 270) (size 1.5 1.5) (drill 1) (layers *.Cu *.Mask))
  (pad 4 thru_hole circle (at 0 7.62 270) (size 1.5 1.5) (drill 1) (layers *.Cu *.Mask))
  (pad 3 thru_hole circle (at 0 5.08 270) (size 1.5 1.5) (drill 1) (layers *.Cu *.Mask))
  (pad 2 thru_hole circle (at 0 2.54 270) (size 1.5 1.5) (drill 1) (layers *.Cu *.Mask))
  (pad 1 thru_hole rect (at 0 0 270) (size 1.5 1.524) (drill 1) (layers *.Cu *.Mask))
  (model ${KISYS3DMOD}/Display_7Segment.3dshapes/DE119-XX-XX.wrl
    (at (xyz 0 0 0))
    (scale (xyz 1 1 1))
    (rotate (xyz 0 0 0))
  )
)
